name="MoreColonialRegions+"
tags={
	"Alternative History"
	"Expansion"
}
version="1.30.*"
archive="C:/Users/Daniel/Documents/Visual Studio 2017/Projects/Uaine Teine/Mods/EU4/MoreColonialRegions+/package.zip"